{
	"entity": {
		"tiled-tile-layer": {
			"components": {
				"transform": {},
				"collision": {
					"profiles": {
						"level": { "type": "tiled-layer-quadtree" }
					}
				},
				"visual": {
					"models": {
						"tiled-tile-layer": {
							"$entry-type": "database",
							"table": "model",
							"name": "tiled-tile-layer"
						}
					}
				}
			},
			"bindings": [
				{"type": "view"},
				{"type": "collision"}
			]
		},
		"tiled-image-layer": {
			"components": {
				"visual": {
					"models": {
						"tiled-image-layer": {
							"$entry-type": "database",
							"table": "model",
							"name": "tiled-image-layer"
						}
					}
				}
			},
			"bindings": [
				{"type": "view"}
			]
		}
	},
	"model": {
		"tiled-tile-layer": {
			"type": "tiled-tile-layer",
			"data": {
				"painter": "tiles"
			}
		},
		"tiled-image-layer": {
			"type": "tiled-image-layer",
			"data": {
				"painter": "tiled-image-background"
			}
		}
	}
}
